{
  "Início": {
    "url": "",
    "pasta-minisite": "nocelli",
    "minisite": "Nocelli"
  },
  "Sobre Nós": {
    "url": "sobre-nos"
  },
  "Contato": {
    "url": "contato"
  },
  "Catálogo": {
    "url": "catalogo",
    "icon": "fa-solid fa-chevron-down",
    "classe": "nome-da-classe",
    "submenu": {
      "Máquina de Misturar Alimentos": {
        "url": "maquina-de-misturar-alimentos",
        "metadescription": "A Máquina de Misturar Alimentos garante a homogeneização eficiente de ingredientes em indústrias alimentícias. Aumente sua produtividade, solicite uma cotação!",
        "conteudo": "<p>A <strong>Máquina de Misturar Alimentos</strong> é essencial para a padronização e eficiência na indústria alimentícia. Proporciona mistura homogênea de ingredientes, reduzindo o tempo de produção e garantindo qualidade. Ideal para fábricas de alimentos, panificação e laticínios.</p><h2>O que é Máquina de Misturar Alimentos?</h2><p>A <strong>Máquina de Misturar Alimentos</strong> é um equipamento projetado para facilitar a mistura homogênea de ingredientes na indústria alimentícia. Sua principal função é garantir que os componentes de uma receita sejam distribuídos uniformemente, melhorando a qualidade e a consistência do produto final.</p><p>Esse tipo de máquina pode ser encontrado em diversas configurações, variando em capacidade, tipo de mistura e material de fabricação. Geralmente, são feitas de aço inoxidável, garantindo resistência à corrosão e facilidade na higienização, requisitos essenciais para o setor alimentício.</p><p>O uso da <strong>Máquina de Misturar Alimentos</strong> reduz o tempo necessário para misturas manuais e minimiza a variação entre os lotes de produção. Isso melhora a padronização do produto, assegurando um alto nível de qualidade em larga escala.</p><h2>Como a Máquina de Misturar Alimentos funciona?</h2><p>A operação da <strong>Máquina de Misturar Alimentos</strong> depende do tipo de tecnologia empregada no equipamento. Algumas máquinas utilizam pás rotativas, enquanto outras empregam sistemas de tambor giratório ou rotação planetária para misturar os ingredientes de forma eficiente.</p><p>O processo começa com a inserção dos ingredientes no recipiente da máquina. Em seguida, o motor aciona o mecanismo interno, promovendo a mistura dos componentes de maneira uniforme. O tempo de operação varia conforme a viscosidade e a quantidade dos ingredientes.</p><p>Após a mistura, a máquina libera o produto para o próximo estágio da produção. Algumas versões possuem ajustes de velocidade e tempo, permitindo maior controle sobre o processo e garantindo a obtenção da textura desejada.</p><h2>Quais os principais tipos de Máquina de Misturar Alimentos?</h2><p>Existem diferentes tipos de <strong>Máquinas de Misturar Alimentos</strong>, cada uma projetada para atender a necessidades específicas da indústria. Os principais modelos incluem:</p><p>O misturador de pás é ideal para massas e misturas de baixa a média viscosidade. Seu sistema de lâminas garante uma distribuição uniforme dos ingredientes. Já o misturador de tambor rotativo é usado para produtos em pó ou grãos, promovendo a movimentação constante para evitar aglomerações.</p><p>Outro tipo comum é o misturador planetário, que combina movimentos circulares e rotacionais para proporcionar misturas mais homogêneas. Esse modelo é amplamente utilizado na panificação e na confeitaria. Além disso, existem máquinas específicas para líquidos, como emulsificadores e misturadores de alta velocidade.</p><h2>Quais as aplicações da Máquina de Misturar Alimentos?</h2><p>A <strong>Máquina de Misturar Alimentos</strong> é amplamente utilizada em diversos segmentos da indústria alimentícia. Um dos principais setores beneficiados é o da panificação, onde essas máquinas auxiliam na preparação de massas para pães, bolos e biscoitos, garantindo uniformidade na textura e no sabor.</p><p>Na indústria de laticínios, essas máquinas são utilizadas para misturar ingredientes em produtos como iogurtes, queijos e cremes. Elas também desempenham um papel fundamental na produção de molhos e condimentos, assegurando uma distribuição homogênea dos ingredientes e melhorando a qualidade final do produto.</p><p>O setor de bebidas também se beneficia do uso dessas máquinas, principalmente na fabricação de sucos, energéticos e bebidas lácteas. Além disso, elas são essenciais na produção de alimentos industrializados, como sopas instantâneas e produtos prontos para consumo.</p><p>A <strong>Máquina de Misturar Alimentos</strong> é indispensável para a indústria alimentícia, garantindo eficiência, qualidade e padronização na produção. Com diversos tipos e aplicações, ela otimiza processos e reduz o tempo de fabricação.</p><p>Se sua empresa busca uma solução moderna e eficiente, solicite uma cotação no Soluções Industriais e descubra as melhores opções para o seu negócio.</p>\n"
    },
    "Máquina de Misturar Tempero": {
        "url": "maquina-de-misturar-tempero",
        "metadescription": "A Máquina de Misturar Tempero garante mistura homogênea e padronização na produção de condimentos. Ideal para a indústria alimentícia. Solicite uma cotação!",
        "conteudo": "<p>A <strong>Máquina de Misturar Tempero</strong> é essencial para garantir a uniformidade e qualidade na produção de condimentos. Com alta precisão, ela melhora a padronização e otimiza o processo produtivo, sendo amplamente utilizada na indústria alimentícia e na fabricação de temperos secos ou líquidos.</p><h2>O que é Máquina de Misturar Tempero?</h2><p>A <strong>Máquina de Misturar Tempero</strong> é um equipamento desenvolvido para misturar ingredientes de forma homogênea, garantindo que os temperos tenham uma distribuição uniforme de sabor, aroma e cor. Esse processo é fundamental na indústria alimentícia, onde a padronização é essencial para a qualidade do produto final.</p><p>Fabricada com materiais resistentes, como aço inoxidável, a máquina atende às exigências sanitárias e facilita a higienização. Dependendo do modelo, ela pode misturar ingredientes secos, líquidos ou em pó, sendo adaptável a diferentes necessidades da indústria.</p><p>Seu uso melhora a eficiência produtiva, reduz desperdícios e evita a variação de lotes, garantindo um produto final consistente e de alta qualidade.</p><h2>Como a Máquina de Misturar Tempero funciona?</h2><p>O funcionamento da <strong>Máquina de Misturar Tempero</strong> varia conforme o modelo e o tipo de ingrediente processado. Geralmente, ela opera por meio de um sistema de rotação ou pás misturadoras, que promovem a combinação homogênea dos componentes.</p><p>Para iniciar o processo, os ingredientes são inseridos no recipiente da máquina. Em seguida, o motor ativa o mecanismo interno, que movimenta os temperos em diferentes direções para garantir uma mistura uniforme. O tempo de mistura pode ser ajustado conforme a densidade e a composição dos ingredientes.</p><p>Ao final do ciclo, o produto misturado é liberado para embalagem ou processamento posterior. Algumas máquinas possuem sistemas automatizados que otimizam a produção, aumentando a eficiência e a qualidade do produto final.</p><h2>Quais os principais tipos de Máquina de Misturar Tempero?</h2><p>Existem diversos modelos de <strong>Máquina de Misturar Tempero</strong>, cada um adequado a diferentes aplicações industriais. Entre os principais tipos estão os misturadores de tambor rotativo, que utilizam um sistema de rotação para misturar ingredientes secos e granulados, proporcionando uma distribuição uniforme.</p><p>Os misturadores de pás são amplamente utilizados para condimentos em pó e líquidos, pois garantem uma homogeneização rápida e eficiente. Já os misturadores em V são ideais para temperos finos e delicados, permitindo uma mistura cuidadosa sem comprometer a textura dos ingredientes.</p><p>Além disso, há modelos com tecnologia avançada, como os misturadores a vácuo, que reduzem a oxidação dos temperos e preservam melhor o sabor e a qualidade dos ingredientes.</p><h2>Quais as aplicações da Máquina de Misturar Tempero?</h2><p>A <strong>Máquina de Misturar Tempero</strong> é amplamente utilizada na indústria alimentícia para a fabricação de condimentos e temperos diversos. Seu uso é essencial na produção de misturas secas para carnes, aves e peixes, garantindo que os ingredientes sejam distribuídos de maneira uniforme.</p><p>Na indústria de molhos e temperos líquidos, a máquina facilita a incorporação de ingredientes, evitando separações indesejadas e melhorando a consistência do produto final. Além disso, ela é empregada na fabricação de misturas para caldos, sopas instantâneas e temperos prontos para uso.</p><p>Seu uso também se estende à produção de temperos naturais, especiarias e ervas aromáticas, garantindo que os produtos atendam aos padrões de qualidade exigidos pelo mercado alimentício.</p><p>A <strong>Máquina de Misturar Tempero</strong> é essencial para a indústria alimentícia, garantindo padronização, eficiência e qualidade na produção de condimentos e misturas especiais. Seu uso otimiza processos e melhora o rendimento produtivo.</p><p>Se sua empresa busca equipamentos modernos para melhorar a qualidade da produção, solicite uma cotação no Soluções Industriais e encontre a melhor solução para seu negócio.</p>\n"
    },
    "Máquina para Misturar Massa de Pão": {
        "url": "maquina-para-misturar-massa-de-pao",
        "metadescription": "A Máquina para Misturar Massa de Pão garante uma mistura homogênea e padronizada, otimizando sua produção. Aumente sua eficiência e solicite uma cotação!",
        "conteudo": "<p>A <strong>Máquina para Misturar Massa de Pão</strong> é essencial para padarias e indústrias de panificação. Com tecnologia avançada, garante uma mistura homogênea, melhorando a textura e qualidade da massa. Reduz o tempo de preparo e padroniza a produção, aumentando a eficiência.</p><h2>O que é Máquina para Misturar Massa de Pão?</h2><p>A <strong>Máquina para Misturar Massa de Pão</strong> é um equipamento projetado para facilitar o processo de mistura e sova de massas em padarias, confeitarias e indústrias de panificação. Seu objetivo é garantir a uniformidade da massa, melhorando a textura, aeração e estrutura do pão.</p><p>Esse tipo de máquina reduz a necessidade de esforço manual, aumentando a produtividade e garantindo que cada lote de massa tenha a mesma qualidade. Além disso, a mistura homogênea dos ingredientes melhora a absorção de líquidos e ativa o glúten de maneira ideal, resultando em pães mais macios e estruturados.</p><p>Geralmente fabricada em aço inoxidável, a <strong>Máquina para Misturar Massa de Pão</strong> atende às normas sanitárias, sendo fácil de higienizar e resistente à corrosão, um fator essencial para o setor alimentício.</p><h2>Como a Máquina para Misturar Massa de Pão funciona?</h2><p>O funcionamento da <strong>Máquina para Misturar Massa de Pão</strong> depende do modelo utilizado. No geral, ela opera com um sistema de pás ou ganchos misturadores, que giram e movimentam a massa de forma eficiente.</p><p>O processo começa com a inserção dos ingredientes na cuba da máquina. Ao ligar o equipamento, os misturadores entram em ação, garantindo que a farinha, água, fermento e outros ingredientes sejam incorporados uniformemente.</p><p>Algumas máquinas possuem velocidades ajustáveis, permitindo um controle mais preciso sobre o desenvolvimento da massa. Modelos mais avançados também contam com temporizadores, garantindo que o tempo de mistura seja ideal para a obtenção da consistência desejada.</p><h2>Quais os principais tipos de Máquina para Misturar Massa de Pão?</h2><p>Existem diferentes tipos de <strong>Máquina para Misturar Massa de Pão</strong>, cada uma adequada a uma necessidade específica da panificação. O misturador espiral é um dos mais comuns, ideal para massas de pães artesanais, pois proporciona um desenvolvimento uniforme do glúten.</p><p>O misturador planetário, por sua vez, é versátil e utilizado tanto para massas leves quanto pesadas. Esse modelo permite a troca de batedores, sendo ideal para quem trabalha com uma variedade de receitas.</p><p>Já o misturador de braços simula a sova manual, garantindo um resultado mais artesanal, muito utilizado na produção de pães especiais. Além disso, existem misturadores industriais de alta capacidade, ideais para grandes produções em fábricas.</p><h2>Quais as aplicações da Máquina para Misturar Massa de Pão?</h2><p>A <strong>Máquina para Misturar Massa de Pão</strong> é amplamente utilizada em padarias, confeitarias, supermercados e indústrias de panificação. Seu uso é fundamental na produção de pães tradicionais, baguetes, ciabattas, focaccias e outros tipos de massas fermentadas.</p><p>Ela também é aplicada na fabricação de massas doces, como brioches e panetones, garantindo que os ingredientes sejam incorporados de maneira uniforme, resultando em produtos de alta qualidade.</p><p>Além do setor de panificação, a máquina pode ser utilizada em cozinhas industriais e restaurantes que produzem massas frescas, garantindo um processo eficiente e padronizado na preparação de alimentos.</p><p>A <strong>Máquina para Misturar Massa de Pão</strong> é indispensável para panificações e indústrias, garantindo eficiência, padronização e qualidade na produção de pães. Seu uso otimiza processos e melhora a textura e o sabor da massa.</p><p>Se você busca um equipamento moderno para elevar a produção, solicite uma cotação no Soluções Industriais e descubra as melhores opções para o seu negócio.</p>\n"
    },
    "Misturador em V para Laboratório": {
        "url": "misturador-em-v-para-laboratorio",
        "metadescription": "O Misturador em V para Laboratório garante mistura homogênea com alta precisão. Ideal para pesquisas e controle de qualidade. Solicite uma cotação agora mesmo!",
        "conteudo": "<p>O <strong>Misturador em V para Laboratório</strong> é um equipamento essencial para homogeneizar pós e granulados com alta precisão. Sua geometria otimiza a mistura de componentes em pequenas quantidades, sendo ideal para pesquisas científicas e controle de qualidade na indústria farmacêutica e química.</p><h2>O que é o Misturador em V para Laboratório?</h2><p>O <strong>Misturador em V para Laboratório</strong> é um equipamento utilizado para misturar pós e granulados de forma homogênea. Sua principal característica é o formato em “V”, que permite uma distribuição uniforme dos componentes, garantindo precisão na composição das misturas.</p><p>Esse misturador é amplamente empregado em laboratórios farmacêuticos, químicos e de pesquisa, onde pequenas quantidades de substâncias precisam ser combinadas de maneira eficiente e sem contaminação cruzada. Ele é projetado para atender a padrões rigorosos de qualidade, sendo fabricado com materiais como aço inoxidável, que facilitam a limpeza e evitam contaminações.</p><p>A eficiência desse equipamento se destaca em testes de formulação, controle de qualidade e desenvolvimento de novos produtos, pois proporciona misturas homogêneas com baixo risco de degradação dos componentes.</p><h2>Como o Misturador em V para Laboratório funciona?</h2><p>O funcionamento do <strong>Misturador em V para Laboratório</strong> baseia-se na rotação do recipiente em formato de “V”. Esse movimento faz com que os pós e granulados se desloquem continuamente entre as duas extremidades do equipamento, promovendo uma mistura eficiente sem a necessidade de partes móveis internas.</p><p>O processo inicia-se com a inserção dos materiais na câmara de mistura. Quando o equipamento é ligado, ele começa a girar em velocidade controlada, permitindo que os componentes se distribuam de maneira uniforme. A ausência de lâminas ou pás reduz o risco de degradação das partículas, tornando esse misturador ideal para substâncias sensíveis.</p><p>Além disso, a maioria dos modelos conta com controles ajustáveis de tempo e velocidade, permitindo personalizar o processo de acordo com as necessidades específicas do laboratório.</p><h2>Quais os principais tipos de Misturador em V para Laboratório?</h2><p>O <strong>Misturador em V para Laboratório</strong> pode variar em capacidade e funcionalidades, dependendo da necessidade da aplicação. Entre os modelos mais comuns, estão os misturadores de pequeno porte, indicados para testes laboratoriais e produção de amostras em pequenas quantidades.</p><p>Há também versões automatizadas, que possuem sistemas programáveis para controlar o tempo e a rotação da mistura, garantindo maior precisão e reprodutibilidade dos resultados. Esses modelos são ideais para laboratórios que exigem alto grau de controle sobre suas formulações.</p><p>Além disso, alguns misturadores em V contam com sistemas de vácuo, que evitam a oxidação dos ingredientes e melhoram a qualidade das misturas, sendo bastante utilizados na indústria farmacêutica e cosmética.</p><h2>Quais as aplicações do Misturador em V para Laboratório?</h2><p>O <strong>Misturador em V para Laboratório</strong> é amplamente utilizado em diferentes setores que exigem precisão na homogeneização de pós e granulados. Na indústria farmacêutica, ele é essencial para a preparação de formulações de medicamentos, garantindo que os princípios ativos sejam distribuídos de maneira uniforme.</p><p>No setor químico, esse equipamento é usado para a mistura de reagentes, pigmentos e outros materiais sólidos, assegurando a qualidade dos produtos finais. Além disso, em laboratórios de pesquisa, o misturador em V é empregado no desenvolvimento de novas formulações e testes de compatibilidade de substâncias.</p><p>O misturador também é utilizado na indústria alimentícia para a preparação de misturas secas de ingredientes, como proteínas, vitaminas e suplementos em pó, garantindo a uniformidade do produto final.</p><p>O <strong>Misturador em V para Laboratório</strong> é um equipamento indispensável para setores que necessitam de misturas homogêneas e de alta precisão. Sua tecnologia avançada garante eficiência e qualidade em processos laboratoriais e industriais.</p><p>Se sua empresa busca um misturador de alto desempenho para laboratório, solicite uma cotação no Soluções Industriais e encontre a solução ideal para suas necessidades.</p>\n"
    },
    "Misturador Horizontal Ribbon Blender": {
        "url": "misturador-horizontal-ribbon-blender",
        "metadescription": "O Misturador Horizontal Ribbon Blender garante homogeneização eficiente, otimizando a produção industrial com alta capacidade e precisão. Solicite uma cotação!",
        "conteudo": "<p>O <strong>Misturador Horizontal Ribbon Blender</strong> é um equipamento industrial projetado para misturar pós e granulados de forma homogênea. Com um sistema de pás helicoidais, ele proporciona eficiência na mistura, sendo amplamente utilizado nas indústrias alimentícia, química e farmacêutica.</p><h2>O que é o Misturador Horizontal Ribbon Blender?</h2><p>O <strong>Misturador Horizontal Ribbon Blender</strong> é um equipamento utilizado para misturar pós, granulados e pequenas quantidades de líquidos em processos industriais. Ele opera por meio de pás helicoidais, também chamadas de “ribbons”, que se movimentam em sentidos opostos, garantindo a homogeneização completa dos ingredientes.</p><p>Esse misturador é amplamente empregado nas indústrias alimentícia, química, farmacêutica e cosmética, onde a padronização das misturas é essencial para a qualidade do produto final. Além disso, ele oferece alta eficiência e rapidez no processamento, reduzindo o tempo de mistura e otimizando a produtividade.</p><p>O <strong>Misturador Horizontal Ribbon Blender</strong> pode ser fabricado em aço carbono ou aço inoxidável, garantindo resistência e conformidade com as normas sanitárias, principalmente em aplicações alimentícias e farmacêuticas.</p><h2>Como o Misturador Horizontal Ribbon Blender funciona?</h2><p>O funcionamento do <strong>Misturador Horizontal Ribbon Blender</strong> baseia-se no movimento simultâneo das pás helicoidais dentro do tambor horizontal. Essas pás giram em direções opostas, criando um fluxo interno que transporta os ingredientes do centro para as extremidades e vice-versa.</p><p>O processo começa com a inserção dos ingredientes no tambor do misturador. Quando acionado, as pás internas movem os componentes de forma contínua, promovendo uma mistura homogênea sem pontos de acúmulo. Esse movimento garante que todos os ingredientes sejam incorporados de maneira uniforme, independentemente de suas características físicas.</p><p>Além disso, alguns modelos contam com sistemas de adição de líquidos, permitindo a incorporação de substâncias durante o processo de mistura. A velocidade e o tempo de operação podem ser ajustados conforme a necessidade do processo produtivo.</p><h2>Quais os principais tipos de Misturador Horizontal Ribbon Blender?</h2><p>Existem diferentes modelos de <strong>Misturador Horizontal Ribbon Blender</strong>, cada um projetado para atender a necessidades específicas da indústria. O misturador padrão possui um tambor horizontal e pás duplas, sendo ideal para misturas secas e granuladas.</p><p>Os modelos com sistema de resfriamento ou aquecimento são utilizados em processos que exigem controle térmico, como a fabricação de produtos químicos e farmacêuticos. Já os misturadores de alta capacidade são projetados para grandes volumes de produção, garantindo eficiência em larga escala.</p><p>Além disso, há versões com descarga rápida, que facilitam a remoção dos produtos misturados e agilizam a troca de lotes, otimizando a produção em indústrias que exigem alto rendimento.</p><h2>Quais as aplicações do Misturador Horizontal Ribbon Blender?</h2><p>O <strong>Misturador Horizontal Ribbon Blender</strong> é amplamente utilizado em diversos setores industriais. Na indústria alimentícia, ele é essencial para a mistura de farinhas, proteínas, temperos e ingredientes secos, garantindo uniformidade e qualidade nos produtos finais.</p><p>Na indústria química, o equipamento é utilizado na formulação de produtos em pó, fertilizantes, pigmentos e aditivos, assegurando a homogeneização completa dos componentes. Já no setor farmacêutico, ele é empregado na fabricação de medicamentos em pó, suplementos e cosméticos.</p><p>Além disso, o <strong>Misturador Horizontal Ribbon Blender</strong> é utilizado na indústria de plásticos e borracha, auxiliando na mistura de polímeros e aditivos antes do processamento final. Sua versatilidade e eficiência fazem dele uma escolha ideal para qualquer processo que demande misturas homogêneas.</p><p>O <strong>Misturador Horizontal Ribbon Blender</strong> é uma solução eficiente para a homogeneização de pós e granulados em diversas indústrias. Com seu sistema de pás helicoidais, ele garante mistura uniforme, alta produtividade e qualidade nos processos produtivos.</p><p>Se sua empresa busca um misturador de alto desempenho, solicite uma cotação no Soluções Industriais e encontre a solução ideal para otimizar sua produção.</p>\n"
    },
    "Misturador Ribbon Blender em Aço Inox": {
        "url": "misturador-ribbon-blender-em-aco-inox",
        "metadescription": "O Misturador Ribbon Blender em Aço Inox é ideal para homogeneizar com alta eficiência. Fabricado em inox, garante durabilidade e higiene. Solicite uma cotação!",
        "conteudo": "<p>O <strong>Misturador Ribbon Blender em Aço Inox</strong> é um equipamento eficiente para misturar pós e granulados de forma homogênea. Sua estrutura em aço inoxidável garante durabilidade, resistência à corrosão e facilidade na limpeza, sendo amplamente utilizado nas indústrias alimentícia, química e farmacêutica.</p><h2>O que é o Misturador Ribbon Blender em Aço Inox?</h2><p>O <strong>Misturador Ribbon Blender em Aço Inox</strong> é um equipamento projetado para realizar misturas homogêneas de pós, granulados e produtos secos em diversos segmentos industriais. Seu sistema de pás helicoidais opostas permite um movimento eficiente dos materiais dentro do tambor, garantindo uniformidade na composição final do produto.</p><p>Esse tipo de misturador é amplamente utilizado nas indústrias alimentícia, química, farmacêutica e cosmética devido à sua eficiência e versatilidade. A fabricação em aço inoxidável proporciona resistência à corrosão, maior durabilidade e facilita a higienização, tornando o equipamento ideal para ambientes que exigem altos padrões sanitários.</p><p>Além disso, o Misturador Ribbon Blender é reconhecido por sua capacidade de processamento em larga escala, reduzindo o tempo de mistura e aumentando a produtividade das operações industriais. Sua estrutura robusta e o design otimizado garantem a integridade dos materiais misturados, evitando segregação ou degradação dos ingredientes.</p><h2>Como o Misturador Ribbon Blender em Aço Inox funciona?</h2><p>O <strong>Misturador Ribbon Blender em Aço Inox</strong> opera por meio de um sistema de pás em formato de fita helicoidal, que se movimentam em sentidos opostos. Esse movimento garante que os ingredientes sejam transportados de forma eficiente por todo o tambor, resultando em uma mistura uniforme.</p><p>O funcionamento do equipamento é baseado em um motor que aciona o eixo das pás, gerando a movimentação necessária para a mistura. O design das pás permite que os materiais sejam constantemente deslocados para diferentes direções, eliminando pontos mortos e garantindo que toda a carga seja processada de maneira homogênea.</p><p>Outro diferencial do Misturador Ribbon Blender em Aço Inox é sua construção robusta, que minimiza a geração de calor durante a operação, evitando alterações nas propriedades dos ingredientes sensíveis. Além disso, ele pode ser equipado com dispositivos adicionais, como sistemas de resfriamento ou aquecimento, para atender a necessidades específicas de processamento.</p><h2>Quais os principais tipos de Misturador Ribbon Blender em Aço Inox?</h2><p>Os <strong>Misturadores Ribbon Blender em Aço Inox</strong> podem ser encontrados em diferentes modelos e capacidades, atendendo a diversas necessidades industriais. O tipo mais comum é o misturador horizontal, que possui um tambor cilíndrico equipado com pás helicoidais que realizam a movimentação dos ingredientes.</p><p>Outro modelo bastante utilizado é o misturador com sistema de duplo eixo, que oferece uma eficiência ainda maior na homogeneização de materiais. Esse tipo de equipamento é recomendado para misturas que exigem tempos reduzidos e resultados mais precisos.</p><p>Além disso, há versões personalizadas que podem incluir sistemas automatizados para controle de tempo e velocidade da mistura, permitindo maior controle sobre o processo produtivo. Dependendo da aplicação, o misturador pode ser fabricado com acabamentos específicos, como polimento sanitário, garantindo conformidade com normas regulatórias.</p><h2>Quais as aplicações do Misturador Ribbon Blender em Aço Inox?</h2><p>O <strong>Misturador Ribbon Blender em Aço Inox</strong> é amplamente utilizado em diversos setores industriais devido à sua capacidade de misturar ingredientes com alta eficiência. Na indústria alimentícia, é empregado para a fabricação de produtos como temperos, misturas para panificação e suplementos nutricionais.</p><p>Na indústria química, esse equipamento é essencial para a homogeneização de pós, pigmentos e produtos químicos em geral. Sua estrutura em aço inoxidável garante que os materiais não sofram contaminação, mantendo a qualidade dos produtos finais.</p><p>Já na indústria farmacêutica, o Misturador Ribbon Blender é utilizado para a produção de fórmulas sólidas, como comprimidos e cápsulas. Sua capacidade de misturar ingredientes ativos e excipientes de forma uniforme garante a qualidade do produto final, atendendo às exigências das normas sanitárias.</p><h2>Conclusão</h2><p>O <strong>Misturador Ribbon Blender em Aço Inox</strong> é um equipamento essencial para indústrias que necessitam de mistura homogênea de pós e granulados. Sua construção em aço inox garante durabilidade, higiene e eficiência no processamento de diversos produtos.</p><p>Se você busca um misturador de alta qualidade para otimizar sua linha de produção, solicite uma cotação no Soluções Industriais e adquira o equipamento ideal para suas necessidades!</p>  \n"
    },
    "Moinho Coloidal Meteor": {
        "url": "moinho-coloidal-meteor",
        "metadescription": "O Moinho Coloidal Meteor garante alta eficiência na homogeneização e emulsificação na indústria. Garanta uma produção uniforme, solicite uma cotação!",
        "conteudo": "<p>O <strong>Moinho Coloidal Meteor</strong> é um equipamento de alto desempenho para emulsificação e homogeneização de líquidos e pastas. Com tecnologia avançada, ele garante partículas finas e uniformes, sendo amplamente utilizado nas indústrias alimentícia, química e farmacêutica.</p><h2>O que é o Moinho Coloidal Meteor?</h2><p>O <strong>Moinho Coloidal Meteor</strong> é um equipamento projetado para reduzir partículas e criar emulsões estáveis em produtos líquidos ou pastosos. Ele funciona com um sistema de rotor e estator, garantindo a homogeneização eficiente dos ingredientes, o que melhora a qualidade e a estabilidade dos produtos processados.</p><p>Esse tipo de moinho é amplamente utilizado na indústria alimentícia para a produção de molhos, cremes e pastas, assim como na indústria química e farmacêutica para a fabricação de cosméticos, medicamentos e lubrificantes. Sua tecnologia avançada permite uma moagem fina e precisa, garantindo alta eficiência no processamento.</p><p>Além disso, o <strong>Moinho Coloidal Meteor</strong> é fabricado com materiais resistentes, como aço inoxidável, atendendo às exigências sanitárias e garantindo durabilidade e segurança no uso industrial.</p><h2>Como o Moinho Coloidal Meteor funciona?</h2><p>O funcionamento do <strong>Moinho Coloidal Meteor</strong> baseia-se no princípio de alta rotação e atrito controlado entre um rotor e um estator. Esse sistema gera forças de cisalhamento que reduzem o tamanho das partículas e promovem a homogeneização dos ingredientes.</p><p>O processo começa com a alimentação do produto na câmara do moinho. Em seguida, o rotor gira em alta velocidade, forçando o material contra o estator, onde ocorre a redução do tamanho das partículas. Esse mecanismo permite a produção de emulsões estáveis e misturas finamente distribuídas.</p><p>Alguns modelos de moinhos coloidais permitem ajustes na distância entre o rotor e o estator, oferecendo maior controle sobre a granulometria final do produto. Isso torna o equipamento altamente versátil para diferentes tipos de produção.</p><h2>Quais os principais tipos de Moinho Coloidal Meteor?</h2><p>O <strong>Moinho Coloidal Meteor</strong> pode ser encontrado em diferentes configurações, dependendo das necessidades de cada indústria. Entre os principais tipos, destacam-se os modelos de moinhos coloidais verticais, que são compactos e ideais para processos contínuos, garantindo eficiência na produção.</p><p>Já os moinhos coloidais horizontais são indicados para produções em larga escala, pois possuem maior capacidade de processamento e permitem controle preciso da granulometria. Além disso, há modelos específicos para produtos de alta viscosidade, como cremes e pastas espessas.</p><p>Outra variação importante são os moinhos coloidais com sistemas de resfriamento, que evitam o superaquecimento do produto durante o processamento. Esse tipo é especialmente útil na indústria farmacêutica e cosmética, onde a temperatura pode afetar a qualidade dos ingredientes ativos.</p><h2>Quais as aplicações do Moinho Coloidal Meteor?</h2><p>O <strong>Moinho Coloidal Meteor</strong> é amplamente utilizado em diversos segmentos industriais devido à sua capacidade de processamento eficiente e homogêneo. Na indústria alimentícia, ele é essencial para a produção de molhos, pastas, cremes, leite condensado e emulsões como maionese e mostarda.</p><p>Na indústria farmacêutica, o equipamento é empregado na fabricação de pomadas, xaropes e emulsões medicinais, garantindo a distribuição uniforme dos componentes ativos. Já no setor químico, o moinho coloidal é utilizado na produção de lubrificantes, tintas e cosméticos, proporcionando uma textura mais uniforme e estável.</p><p>Além dessas aplicações, o <strong>Moinho Coloidal Meteor</strong> também é utilizado em processos de nanotecnologia e biotecnologia, onde a redução precisa do tamanho das partículas é essencial para a qualidade dos produtos finais.</p><p>O <strong>Moinho Coloidal Meteor</strong> é um equipamento essencial para indústrias que precisam de emulsificação e homogeneização de alta precisão. Com tecnologia avançada, ele garante eficiência, qualidade e estabilidade nos processos produtivos.</p><p>Se sua empresa busca um moinho coloidal de alto desempenho, solicite uma cotação no Soluções Industriais e encontre a melhor solução para o seu negócio.</p>\n"
    },
    "Moinho Faca e Martelo": {
        "url": "moinho-faca-e-martelo",
        "metadescription": "O Moinho Faca e Martelo é ideal para moagem eficiente de grãos e materiais fibrosos, garantindo alta produtividade e uniformidade. Solicite uma cotação!",
        "conteudo": "<p>O <strong>Moinho Faca e Martelo</strong> é um equipamento utilizado na moagem de grãos, cereais e materiais fibrosos. Combinando facas e martelos, ele garante um processamento eficiente, alta produtividade e partículas uniformes, sendo amplamente empregado nas indústrias alimentícia, agrícola e química.</p><h2>O que é Moinho Faca e Martelo?</h2><p>O <strong>Moinho Faca e Martelo</strong> é um equipamento projetado para realizar a moagem de diversos materiais, combinando um sistema de facas e martelos para triturar, cortar e reduzir o tamanho das partículas de forma eficiente. Sua principal função é transformar grãos, cereais e outros produtos secos em partículas menores e uniformes.</p><p>Esse tipo de moinho é amplamente utilizado nas indústrias alimentícia, agrícola e química, sendo essencial para a fabricação de rações, processamento de biomassa, moagem de especiarias e outras aplicações que exigem uma moagem de alta performance. Sua versatilidade permite ajustes conforme a granulometria desejada.</p><p>Fabricado geralmente em aço carbono ou aço inoxidável, o <strong>Moinho Faca e Martelo</strong> possui uma estrutura robusta, garantindo durabilidade e resistência ao desgaste, além de ser fácil de operar e manter.</p><h2>Como o Moinho Faca e Martelo funciona?</h2><p>O funcionamento do <strong>Moinho Faca e Martelo</strong> é baseado em um sistema de trituração que combina o impacto dos martelos com o corte preciso das facas. Esse mecanismo permite a moagem rápida e eficiente de diferentes materiais.</p><p>O processo começa com a alimentação do material na câmara de moagem. Em seguida, as facas realizam o primeiro corte, reduzindo o tamanho inicial das partículas. Após essa etapa, os martelos entram em ação, aplicando impacto e garantindo uma moagem mais fina e uniforme.</p><p>A granulometria do produto final pode ser ajustada por meio da troca de peneiras, que regulam o tamanho das partículas conforme a necessidade da aplicação. Esse controle permite maior versatilidade e adequação a diferentes processos produtivos.</p><h2>Quais os principais tipos de Moinho Faca e Martelo?</h2><p>Existem diferentes tipos de <strong>Moinho Faca e Martelo</strong>, cada um adequado para aplicações específicas. O moinho de alta rotação, por exemplo, é ideal para materiais de baixa densidade, garantindo uma moagem mais rápida e eficiente.</p><p>Já o moinho de baixa rotação é indicado para materiais mais resistentes, permitindo uma trituração mais controlada e uniforme. Esse modelo é amplamente utilizado na produção de rações e alimentos processados.</p><p>Além disso, alguns moinhos possuem sistemas automatizados, que regulam a velocidade dos martelos e facas para otimizar a moagem. Essa tecnologia aumenta a eficiência do equipamento, reduzindo o consumo de energia e minimizando o desperdício de material.</p><h2>Quais as aplicações do Moinho Faca e Martelo?</h2><p>O <strong>Moinho Faca e Martelo</strong> é utilizado em diversas indústrias devido à sua eficiência e versatilidade. No setor agrícola, ele é essencial para a fabricação de rações animais, permitindo a moagem de milho, soja, trigo e outros grãos, garantindo uma alimentação balanceada e nutritiva.</p><p>Na indústria alimentícia, esse moinho é utilizado no processamento de especiarias, farinhas, cereais e outros ingredientes secos, garantindo uma textura uniforme e de alta qualidade. Já no setor químico, ele é aplicado na trituração de produtos fibrosos e materiais para fabricação de pigmentos e aditivos.</p><p>Além dessas aplicações, o <strong>Moinho Faca e Martelo</strong> também é amplamente utilizado na produção de biomassa e na reciclagem de resíduos orgânicos, contribuindo para processos sustentáveis e de reaproveitamento de materiais.</p><p>O <strong>Moinho Faca e Martelo</strong> é um equipamento indispensável para indústrias que necessitam de moagem eficiente e uniforme. Com um sistema robusto e versátil, ele garante alta produtividade e qualidade nos processos de trituração.</p><p>Se sua empresa busca um moinho de alto desempenho, solicite uma cotação no Soluções Industriais e encontre a solução ideal para suas necessidades produtivas.</p>\n"
    },
    "Reator para Produção de Cosméticos": {
        "url": "reator-para-producao-de-cosmeticos",
        "metadescription": "O Reator para Produção de Cosméticos é ideal para misturar, aquecer e processar formulações com alta eficiência e controle. Solicite um orçamento agora mesmo!",
        "conteudo": "<p>O <strong>Reator para Produção de Cosméticos</strong> é um equipamento essencial para a fabricação de cremes, loções e géis. Ele permite mistura, aquecimento e emulsificação de ingredientes, garantindo uniformidade e qualidade nos produtos finais. Utilizado em indústrias cosméticas, farmacêuticas e químicas, oferece alta eficiência e controle preciso.</p><h2>O que é o Reator para Produção de Cosméticos?</h2><p>O <strong>Reator para Produção de Cosméticos</strong> é um equipamento projetado para realizar a mistura, aquecimento, resfriamento e emulsificação de ingredientes utilizados na fabricação de produtos cosméticos. Sua estrutura robusta permite que diferentes processos sejam conduzidos com alta precisão, garantindo qualidade e padronização na produção.</p><p>Esse equipamento é essencial para indústrias de cosméticos, farmacêutica e química, onde a necessidade de processos controlados e formulações homogêneas é primordial. O reator pode ser fabricado em aço inoxidável, o que garante maior durabilidade e facilita a higienização, atendendo às exigências sanitárias.</p><p>Além disso, o Reator para Produção de Cosméticos pode conter sistemas automatizados que controlam temperatura, pressão e tempo de mistura, proporcionando maior eficiência e redução de desperdícios. Sua capacidade varia conforme a demanda, podendo ser utilizado tanto para pequenas produções quanto para fabricação em larga escala.</p><h2>Como o Reator para Produção de Cosméticos funciona?</h2><p>O <strong>Reator para Produção de Cosméticos</strong> opera por meio de um sistema que combina agitação, controle de temperatura e pressão para garantir a homogeneização dos ingredientes. Ele pode ser equipado com misturadores mecânicos ou sistemas de emulsificação a vácuo, que ajudam a criar texturas suaves e uniformes nos produtos finais.</p><p>O funcionamento do reator começa com a adição dos ingredientes na câmara principal, onde são misturados por meio de hélices ou pás. Durante o processo, o sistema de aquecimento é ativado para atingir a temperatura desejada, promovendo a fusão de componentes e melhor integração dos ativos.</p><p>Após a mistura e emulsificação, o resfriamento controlado entra em ação para garantir a estabilidade da formulação. Dependendo da aplicação, o equipamento pode incluir sistemas de vácuo para remover bolhas de ar e melhorar a qualidade final do produto cosmético.</p><h2>Quais os principais tipos de Reator para Produção de Cosméticos?</h2><p>O <strong>Reator para Produção de Cosméticos</strong> pode ser encontrado em diversos modelos, cada um adaptado para diferentes processos e tipos de formulações. Entre os principais tipos, destacam-se os reatores com misturadores mecânicos e os reatores a vácuo, que garantem emulsificação avançada.</p><p>Os modelos mais comuns incluem reatores com aquecimento por resistência elétrica ou vapor, permitindo controle preciso da temperatura. Além disso, há equipamentos com sistemas automatizados, que possibilitam programar parâmetros como tempo de mistura, temperatura e velocidade de agitação, tornando o processo mais eficiente e seguro.</p><p>Outra variação importante são os reatores com controle de pressão, utilizados para produção de emulsões estáveis e de alta performance. Esses modelos são ideais para cremes, séruns e outros produtos cosméticos que exigem texturas homogêneas e livres de microbolhas.</p><h2>Quais as aplicações do Reator para Produção de Cosméticos?</h2><p>O <strong>Reator para Produção de Cosméticos</strong> é amplamente utilizado na fabricação de diversos produtos, desde cremes hidratantes até shampoos e géis. Sua versatilidade permite a produção de emulsões, soluções e suspensões com alta qualidade e estabilidade.</p><p>Na indústria cosmética, o reator é essencial para a produção de loções, protetores solares, desodorantes e maquiagens. Seu controle preciso de temperatura e mistura garante que os ingredientes sejam incorporados corretamente, resultando em produtos finais uniformes e com excelente textura.</p><p>Além disso, na indústria farmacêutica, o Reator para Produção de Cosméticos também é utilizado para desenvolver pomadas e géis dermatológicos, garantindo que os princípios ativos sejam distribuídos de maneira homogênea. Sua aplicação se estende ainda ao setor químico, na fabricação de fragrâncias e produtos de higiene pessoal.</p><h2>Conclusão</h2><p>O <strong>Reator para Produção de Cosméticos</strong> é um equipamento indispensável para garantir misturas homogêneas e formulações de alta qualidade. Sua estrutura avançada permite controle total do processo produtivo, otimizando tempo e reduzindo desperdícios.</p><p>Se você deseja aumentar a eficiência da sua linha de produção, solicite uma cotação no Soluções Industriais e adquira um reator que atenda às suas necessidades com excelência!</p>  \n"
    },
    "Tanque Reator Inox": {
        "url": "tanque-reator-inox",
        "metadescription": "O Tanque Reator Inox é ideal para reações químicas controladas, garantindo resistência, durabilidade e segurança na produção industrial. Solicite uma cotação!",
        "conteudo": "<p>O <strong>Tanque Reator Inox</strong> é um equipamento utilizado para reações químicas, mistura e processamento de substâncias em indústrias químicas, farmacêuticas e alimentícias. Feito em aço inoxidável, garante alta resistência à corrosão, durabilidade e segurança operacional, sendo essencial para processos que exigem controle rigoroso de temperatura e pressão.</p><h2>O que é o Tanque Reator Inox?</h2><p>O <strong>Tanque Reator Inox</strong> é um equipamento industrial utilizado para realizar reações químicas controladas, aquecimento, resfriamento e mistura de substâncias em diferentes setores produtivos. Sua construção em aço inoxidável confere resistência à corrosão e facilidade de limpeza, tornando-o ideal para aplicações que exigem altos padrões de higiene e segurança.</p><p>Esse tipo de reator é amplamente empregado em indústrias químicas, farmacêuticas, alimentícias e cosméticas, onde a precisão nos processos é essencial para garantir a qualidade dos produtos finais. Além disso, sua estrutura robusta permite operar sob diferentes condições de temperatura e pressão, possibilitando a realização de reações complexas com total eficiência.</p><p>O Tanque Reator Inox pode ser fabricado em diversos tamanhos e modelos, desde pequenas unidades para pesquisas laboratoriais até grandes equipamentos industriais utilizados na produção em larga escala. Sua versatilidade permite a adaptação conforme as necessidades do processo produtivo.</p><h2>Como o Tanque Reator Inox funciona?</h2><p>O <strong>Tanque Reator Inox</strong> opera por meio de um sistema que controla variáveis como temperatura, pressão e velocidade de agitação, garantindo que as reações químicas ocorram de maneira eficiente e segura. O equipamento pode conter diferentes dispositivos auxiliares, como trocadores de calor, agitadores mecânicos e sensores de monitoramento.</p><p>O funcionamento inicia-se com a adição dos reagentes na câmara principal do tanque. Em seguida, o sistema de agitação entra em ação para misturar os componentes de forma homogênea. Caso o processo exija aquecimento ou resfriamento, o equipamento utiliza serpentinas ou jaquetas térmicas para manter a temperatura desejada.</p><p>Durante a reação, sensores eletrônicos monitoram constantemente os parâmetros do processo, ajustando automaticamente temperatura e pressão conforme necessário. Esse controle preciso garante que os produtos finais tenham características homogêneas e estejam dentro dos padrões exigidos pelas normas industriais.</p><h2>Quais os principais tipos de Tanque Reator Inox?</h2><p>O <strong>Tanque Reator Inox</strong> pode ser encontrado em diversos modelos, cada um projetado para atender a necessidades específicas de diferentes setores industriais. Entre os principais tipos, destacam-se os reatores de mistura simples, os reatores pressurizados e os reatores com sistema de vácuo.</p><p>Os reatores de mistura simples são utilizados para processos que não exigem grandes variações de temperatura ou pressão. Já os reatores pressurizados são indicados para reações químicas que ocorrem em ambientes de alta pressão, como a síntese de produtos químicos e farmacêuticos.</p><p>Por outro lado, os reatores a vácuo são amplamente utilizados para a produção de emulsões e formulações sensíveis, pois evitam a formação de bolhas de ar e garantem maior estabilidade ao produto final. Dependendo da aplicação, os reatores podem ser equipados com sistemas automatizados para controle preciso das variáveis do processo.</p><h2>Quais as aplicações do Tanque Reator Inox?</h2><p>O <strong>Tanque Reator Inox</strong> é amplamente utilizado em indústrias que necessitam de processos controlados para a fabricação de produtos químicos, farmacêuticos, cosméticos e alimentícios. Sua versatilidade permite que ele seja aplicado em diversas etapas produtivas, desde a síntese de substâncias até a mistura e homogeneização de formulações.</p><p>Na indústria química, o tanque reator é empregado na fabricação de polímeros, solventes, tintas e adesivos, garantindo que as reações ocorram dentro dos parâmetros ideais. No setor farmacêutico, o equipamento é utilizado na síntese de princípios ativos e na preparação de medicamentos líquidos e semissólidos.</p><p>Além disso, na indústria cosmética, o Tanque Reator Inox é fundamental para a produção de cremes, loções, shampoos e perfumes. Sua estrutura permite a emulsificação e homogeneização eficiente dos ingredientes, assegurando a qualidade e estabilidade dos produtos finais. Já no setor alimentício, ele é empregado na fabricação de molhos, laticínios e bebidas, garantindo processos seguros e padronizados.</p><h2>Conclusão</h2><p>O <strong>Tanque Reator Inox</strong> é um equipamento indispensável para indústrias que exigem processos químicos controlados e de alta precisão. Sua fabricação em aço inox garante resistência, durabilidade e facilidade na limpeza, tornando-o ideal para diversos segmentos produtivos.</p><p>Se você busca um reator de alta qualidade para otimizar sua produção, solicite uma cotação no Soluções Industriais e adquira um equipamento eficiente e seguro para sua empresa!</p>  \n"
    }
    }
  }
 
}
